[{
	"position": 6,
	 "lag": 0
}, {
	"position": 6,
	 "lag": 2
}, {
	"position": 6,
	 "lag": 0
}, {
	"position": 4,
	 "lag": 5
}, {
	"position": 4,
	 "lag": 5
}, {
	"position": 4,
	 "lag": 8
}, {
	"position": 4,
	 "lag": 4
}, {
	"position": 6,
	 "lag": 0
}, {
	"position": 6,
	 "lag": 0
}, {
	"position": 4,
	 "lag": 3
}, {
	"position": 6,
	 "lag": 2
}, {
	"position": 6,
	 "lag": 0
}, {
	"position": 6,
	 "lag": 0
}, {
	"position": 6,
	 "lag": 5
}, {
	"position": 4,
	 "lag": 5
}, {
	"position": 6,
	 "lag": 0
}, {
	"position": 4,
	 "lag": 6
}, {
	"position": 4,
	 "lag": 4
}, {
	"position": 6,
	 "lag": 8
}, {
	"position": 6,
	 "lag": 0
}, {
	"position": 6,
	 "lag": 0
}, {
	"position": 4,
	 "lag": 5
}, {
	"position": 4,
	 "lag": 2
}, {
	"position": 4,
	 "lag": 7
}, {
	"position": 4,
	 "lag": 8
}, {
	"position": 6,
	 "lag": 0
}, {
	"position": 6,
	 "lag": 6
}, {
	"position": 4,
	 "lag": 3
}, {
	"position": 6,
	 "lag": 7
}, {
	"position": 4,
	 "lag": 6
}, {
	"position": 4,
	 "lag": 2
}, {
	"position": 6,
	 "lag": 0
}, {
	"position": 6,
	 "lag": 1
}, {
	"position": 4,
	 "lag": 6
}, {
	"position": 6,
	 "lag": 7
}, {
	"position": 4,
	 "lag": 8
}, {
	"position": 6,
	 "lag": 0
}, {
	"position": 6,
	 "lag": 0
}, {
	"position": 4,
	 "lag": 2
}, {
	"position": 4,
	 "lag": 4
}, {
	"position": 6,
	 "lag": 0
}, {
	"position": 6,
	 "lag": 0
}, {
	"position": 6,
	 "lag": 3
}, {
	"position": 6,
	 "lag": 4
}, {
	"position": 4,
	 "lag": 1
}, {
	"position": 4,
	 "lag": 1
}, {
	"position": 6,
	 "lag": 8
}, {
	"position": 6,
	 "lag": 0
}, {
	"position": 6,
	 "lag": 3
}, {
	"position": 6,
	 "lag": 4
}, {
	"position": 6,
	 "lag": 7
}, {
	"position": 6,
	 "lag": 0
}, {
	"position": 6,
	 "lag": 3
}, {
	"position": 6,
	 "lag": 6
}, {
	"position": 6,
	 "lag": 0
}, {
	"position": 6,
	 "lag": 0
}, {
	"position": 4,
	 "lag": 7
}, {
	"position": 6,
	 "lag": 0
}, {
	"position": 6,
	 "lag": 1
}, {
	"position": 6,
	 "lag": 1
}, {
	"position": 6,
	 "lag": 0
}, {
	"position": 6,
	 "lag": 4
}, {
	"position": 6,
	 "lag": 6
}, {
	"position": 6,
	 "lag": 4
}, {
	"position": 4,
	 "lag": 3
}, {
	"position": 6,
	 "lag": 0
}, {
	"position": 4,
	 "lag": 1
}, {
	"position": 6,
	 "lag": 8
}, {
	"position": 6,
	 "lag": 1
}, {
	"position": 6,
	 "lag": 4
}, {
	"position": 4,
	 "lag": 4
}, {
	"position": 6,
	 "lag": 5
}, {
	"position": 6,
	 "lag": 3
}, {
	"position": 4,
	 "lag": 6
}, {
	"position": 6,
	 "lag": 8
}, {
	"position": 4,
	 "lag": 8
}, {
	"position": 6,
	 "lag": 7
}, {
	"position": 6,
	 "lag": 0
}, {
	"position": 6,
	 "lag": 3
}, {
	"position": 4,
	 "lag": 5
}, {
	"position": 6,
	 "lag": 2
}, {
	"position": 6,
	 "lag": 0
}, {
	"position": 6,
	 "lag": 2
}, {
	"position": 6,
	 "lag": 2
}, {
	"position": 4,
	 "lag": 7
}, {
	"position": 6,
	 "lag": 6
}, {
	"position": 6,
	 "lag": 0
}, {
	"position": 6,
	 "lag": 7
}, {
	"position": 4,
	 "lag": 8
}, {
	"position": 6,
	 "lag": 0
}, {
	"position": 6,
	 "lag": 5
}, {
	"position": 6,
	 "lag": 0
}, {
	"position": 6,
	 "lag": 0
}, {
	"position": 4,
	 "lag": 4
}, {
	"position": 6,
	 "lag": 0
}, {
	"position": 4,
	 "lag": 1
}, {
	"position": 4,
	 "lag": 2
}, {
	"position": 4,
	 "lag": 2
}, {
	"position": 6,
	 "lag": 0
}, {
	"position": 6,
	 "lag": 5
}, {
	"position": 4,
	 "lag": 7
}, {
	"position": 4,
	 "lag": 1
}, {
	"position": 4,
	 "lag": 3
}, {
	"position": 6,
	 "lag": 6
}, {
	"position": 6,
	 "lag": 0
}, {
	"position": 4,
	 "lag": 7
}, {
	"position": 6,
	 "lag": 1
}, {
	"position": 6,
	 "lag": 0
}, {
	"position": 6,
	 "lag": 0
}, {
	"position": 6,
	 "lag": 0
}, {
	"position": 6,
	 "lag": 0
}, {
	"position": 6,
	 "lag": 0
}, {
	"position": 6,
	 "lag": 5
}, {
	"position": 4,
	 "lag": 3
}, {
	"position": 6,
	 "lag": 8
}, {
	"position": 6,
	 "lag": 0
}, {
	"position": 6,
	 "lag": 0
}, {
	"position": 6,
	 "lag": 0
}, {
	"position": 4,
	 "lag": 6
}, {
	"position": 4,
	 "lag": 6
}]
